[
{
  "model": "auth.group",
  "pk": 1,
  "fields": {
    "name": "Project Manager",
    "permissions": [
      [
        "add_project",
        "projects",
        "project"
      ],
      [
        "add_user_to_project",
        "projects",
        "project"
      ],
      [
        "change_project",
        "projects",
        "project"
      ],
      [
        "delete_project",
        "projects",
        "project"
      ],
      [
        "view_project",
        "projects",
        "project"
      ],
      [
        "add_task",
        "todo",
        "task"
      ],
      [
        "change_task",
        "todo",
        "task"
      ],
      [
        "delete_task",
        "todo",
        "task"
      ],
      [
        "view_task",
        "todo",
        "task"
      ]
    ]
  }
},
{
  "model": "auth.group",
  "pk": 2,
  "fields": {
    "name": "Team Lead",
    "permissions": [
      [
        "add_user_to_project",
        "projects",
        "project"
      ],
      [
        "view_project",
        "projects",
        "project"
      ],
      [
        "add_task",
        "todo",
        "task"
      ],
      [
        "change_task",
        "todo",
        "task"
      ],
      [
        "delete_task",
        "todo",
        "task"
      ],
      [
        "view_task",
        "todo",
        "task"
      ]
    ]
  }
},
{
  "model": "auth.group",
  "pk": 3,
  "fields": {
    "name": "Developer",
    "permissions": [
      [
        "view_project",
        "projects",
        "project"
      ],
      [
        "add_task",
        "todo",
        "task"
      ],
      [
        "change_task",
        "todo",
        "task"
      ],
      [
        "view_task",
        "todo",
        "task"
      ]
    ]
  }
},
{
  "model": "auth.user",
  "pk": 1,
  "fields": {
    "password": "pbkdf2_sha256$720000$0Nx35vwDYxenBSvMRkGu1b$QPUOgHO3125i6X/7iSLbwIZsts/SxLUT6yATz2NwLkc=",
    "last_login": "2024-03-24T18:05:39.357Z",
    "is_superuser": true,
    "username": "admin",
    "first_name": "Saka",
    "last_name": "Bukayo",
    "email": "bukasa@gmail.com",
    "is_staff": true,
    "is_active": true,
    "date_joined": "2024-02-23T09:44:10Z",
    "groups": [],
    "user_permissions": []
  }
},
{
  "model": "auth.user",
  "pk": 2,
  "fields": {
    "password": "pbkdf2_sha256$720000$6Ekt4WmHndUJcnQWpWW9J1$DFloQtn55dIVK01JV1YJbKrZMeuAfpG7+GQGqrQroaA=",
    "last_login": "2024-03-25T16:49:43.643Z",
    "is_superuser": false,
    "username": "user1",
    "first_name": "Martin",
    "last_name": "Odegard",
    "email": "user1@gmail.com",
    "is_staff": false,
    "is_active": true,
    "date_joined": "2024-03-12T17:20:37Z",
    "groups": [
      [
        "Project Manager"
      ]
    ],
    "user_permissions": []
  }
},
{
  "model": "auth.user",
  "pk": 3,
  "fields": {
    "password": "pbkdf2_sha256$720000$9uNQjgrryVfgjc2Vh7QEDP$6XirKg4UwPSEELXepzBN9f17rsx6MpiE5hzW73nq9QI=",
    "last_login": "2024-03-24T17:58:01.028Z",
    "is_superuser": false,
    "username": "user2",
    "first_name": "Declan",
    "last_name": "Rice",
    "email": "rice@mail.ru",
    "is_staff": false,
    "is_active": true,
    "date_joined": "2024-03-12T17:25:34Z",
    "groups": [
      [
        "Team Lead"
      ]
    ],
    "user_permissions": []
  }
},
{
  "model": "auth.user",
  "pk": 4,
  "fields": {
    "password": "pbkdf2_sha256$720000$gv2Df4I29hQCSOtnxslkKm$h1xle38aC2wsb1VgTIW7y85UMsK00MH1OGEMZds0F68=",
    "last_login": "2024-03-24T16:43:03Z",
    "is_superuser": false,
    "username": "user4",
    "first_name": "Gabriel",
    "last_name": "Martinelli",
    "email": "user4@mail.ru",
    "is_staff": false,
    "is_active": true,
    "date_joined": "2024-03-14T17:12:41Z",
    "groups": [
      [
        "Developer"
      ]
    ],
    "user_permissions": []
  }
},
{
  "model": "auth.user",
  "pk": 5,
  "fields": {
    "password": "pbkdf2_sha256$720000$CY6b1MsyES3ayi6CyIpjui$5DTIRihDaPytVyMxhUgYsolbIFKkpi9/+i64B3aMLtQ=",
    "last_login": "2024-03-24T15:20:17Z",
    "is_superuser": false,
    "username": "user5",
    "first_name": "William",
    "last_name": "Saliba",
    "email": "user5@ya.ru",
    "is_staff": false,
    "is_active": true,
    "date_joined": "2024-03-14T17:13:17Z",
    "groups": [
      [
        "Developer"
      ]
    ],
    "user_permissions": []
  }
},
{
  "model": "auth.user",
  "pk": 6,
  "fields": {
    "password": "pbkdf2_sha256$720000$W54UN66iXAFTpHdQkJJEWv$iKnMbBbzLdNETQ6Q/C8EAEPFC0auO6cB80Tdys7sr+4=",
    "last_login": "2024-03-24T12:19:01.496Z",
    "is_superuser": false,
    "username": "user6",
    "first_name": "Emil",
    "last_name": "Smit-Row",
    "email": "emil@gmail.com",
    "is_staff": false,
    "is_active": true,
    "date_joined": "2024-03-22T16:24:20Z",
    "groups": [
      [
        "Developer"
      ]
    ],
    "user_permissions": []
  }
}
]
